1 10 20
100 200 125
201 210 89
900 1000 174
1 1 1
28367 93459 351
4626 77083 351
21020 94934 351
44791 74185 340
67718 93815 351
40882 50104 314
93194 57725 351
31812 40597 324
46117 17621 324
56911 34887 340
79874 4160 351
33114 45821 324
27825 11796 308
34047 73923 340
62182 98745 351
54881 60764 322
91816 69197 351
98771 12603 351
32501 53215 340
86974 43632 351
68415 39970 340
82069 65974 351
86742 61595 351
49317 26269 324
60395 78185 351
58885 94656 351
6447 99325 351
33782 5626 308
23281 95877 351
51163 384 324
39247 15756 324
621 52107 324
51271 23665 324
94675 79040 333
50013 39717 314
12102 76953 340
23775 1511 282
27727 26222 308
61864 38575 340
26783 23678 308
30538 3020 308
86263 27267 351
10480 12447 268
21371 231 279
52847 80148 351
35878 49013 314
94819 78875 333
43272 64526 340
94509 29627 351
14100 35620 311
32854 87375 351
80648 12949 351
9597 94360 351
35297 77705 351
65874 58351 335
13918 77943 351
43272 78643 351
12643 23979 282
22242 50531 324
95330 14998 351
35826 42244 306
1025 30815 308
91644 22189 351
31251 52001 324
58765 44058 340
16868 90668 351
48665 55457 340
37472 35293 324
29588 64973 340
9617 68076 340
28789 91679 351
21000 48308 324
55444 95621 351
95969 78567 338
65324 64735 268
646 5903 238
19750 69969 340
95684 38732 351
4069 44601 324
65633 881 340
61561 14337 340
24328 64112 340
96964 55765 351
35555 24013 311
33117 99889 351
3571 36844 324
46031 37432 314
78625 8700 351
99815 73813 351
7301 30580 308
65937 59163 335
91334 70259 351
99063 25875 351
21637 39831 324
4315 84479 351
42868 70312 340
35503 6669 311
39130 96181 351
16007 43976 324
63535 73097 325
